EESchema Schematic File Version 2
LIBS:ESP_Board-rescue
LIBS:power
LIBS:device
LIBS:transistors
LIBS:conn
LIBS:linear
LIBS:regul
LIBS:74xx
LIBS:cmos4000
LIBS:adc-dac
LIBS:memory
LIBS:xilinx
LIBS:microcontrollers
LIBS:dsp
LIBS:microchip
LIBS:analog_switches
LIBS:motorola
LIBS:texas
LIBS:intel
LIBS:audio
LIBS:interface
LIBS:digital-audio
LIBS:philips
LIBS:display
LIBS:cypress
LIBS:siliconi
LIBS:opto
LIBS:atmel
LIBS:contrib
LIBS:valves
LIBS:ESP_Board-cache
EELAYER 25 0
EELAYER END
$Descr A4 11693 8268
encoding utf-8
Sheet 1 1
Title ""
Date ""
Rev ""
Comp ""
Comment1 ""
Comment2 ""
Comment3 ""
Comment4 ""
$EndDescr
$Comp
L CONN_01X06 P2
U 1 1 56FBE21B
P 2500 3350
F 0 "P2" H 2500 3700 50  0000 C CNN
F 1 "CONN_01X06" V 2600 3350 50  0000 C CNN
F 2 "Pin_Headers:Pin_Header_Straight_1x06" H 2500 3350 60  0001 C CNN
F 3 "" H 2500 3350 60  0000 C CNN
	1    2500 3350
	-1   0    0    1   
$EndComp
$Comp
L CONN_01X04 P3
U 1 1 56FBE2A7
P 2500 4200
F 0 "P3" H 2500 4450 50  0000 C CNN
F 1 "CONN_01X04" V 2600 4200 50  0000 C CNN
F 2 "Pin_Headers:Pin_Header_Angled_1x04" H 2500 4200 60  0001 C CNN
F 3 "" H 2500 4200 60  0000 C CNN
	1    2500 4200
	-1   0    0    1   
$EndComp
$Comp
L CONN_01X03 P1
U 1 1 56FBE31E
P 2450 2000
F 0 "P1" H 2450 2200 50  0000 C CNN
F 1 "CONN_01X03" V 2550 2000 50  0000 C CNN
F 2 "ESP_Board:Jackin" H 2450 2000 60  0001 C CNN
F 3 "" H 2450 2000 60  0000 C CNN
	1    2450 2000
	-1   0    0    1   
$EndComp
$Comp
L NCP1117ST33T3G U1
U 1 1 56FBE3CE
P 4025 1950
F 0 "U1" H 4025 2200 40  0000 C CNN
F 1 "NCP1117ST33T3G" H 4025 2150 40  0000 C CNN
F 2 "TO_SOT_Packages_SMD:SOT-223" H 4025 1950 60  0001 C CNN
F 3 "" H 4025 1950 60  0000 C CNN
	1    4025 1950
	1    0    0    -1  
$EndComp
$Comp
L CAPAPOL C1
U 1 1 56FBE629
P 3325 2100
F 0 "C1" H 3375 2200 40  0000 L CNN
F 1 "10µF" H 3375 2000 40  0000 L CNN
F 2 "Capacitors_ThroughHole:C_Radial_D6.3_L11.2_P2.5" H 3425 1950 30  0001 C CNN
F 3 "" H 3325 2100 300 0000 C CNN
	1    3325 2100
	1    0    0    -1  
$EndComp
$Comp
L CAPAPOL C3
U 1 1 56FBE6B0
P 4550 2100
F 0 "C3" H 4600 2200 40  0000 L CNN
F 1 "10µF" H 4600 2000 40  0000 L CNN
F 2 "Capacitors_ThroughHole:C_Radial_D6.3_L11.2_P2.5" H 4650 1950 30  0001 C CNN
F 3 "" H 4550 2100 300 0000 C CNN
	1    4550 2100
	1    0    0    -1  
$EndComp
$Comp
L C-RESCUE-ESP_Board C4
U 1 1 56FBE731
P 4775 2100
F 0 "C4" H 4775 2200 40  0000 L CNN
F 1 "100nF" H 4781 2015 40  0000 L CNN
F 2 "Capacitors_ThroughHole:C_Rect_L4_W2.5_P2.5" H 4813 1950 30  0001 C CNN
F 3 "" H 4775 2100 60  0000 C CNN
	1    4775 2100
	1    0    0    -1  
$EndComp
$Comp
L C-RESCUE-ESP_Board C2
U 1 1 56FBE78B
P 3550 2100
F 0 "C2" H 3550 2200 40  0000 L CNN
F 1 "100nF" H 3556 2015 40  0000 L CNN
F 2 "Capacitors_ThroughHole:C_Rect_L4_W2.5_P2.5" H 3588 1950 30  0001 C CNN
F 3 "" H 3550 2100 60  0000 C CNN
	1    3550 2100
	1    0    0    -1  
$EndComp
Text GLabel 4875 1900 2    60   Input ~ 0
+3v3
Text Notes 1525 2025 0    60   ~ 0
Alimentation 5V
Text Notes 2075 3400 0    60   ~ 0
FTDI
Text Notes 2100 4250 0    60   ~ 0
LEDs
$Comp
L SW_PUSH SW1
U 1 1 56FBEE08
P 4475 3900
F 0 "SW1" H 4625 4010 50  0000 C CNN
F 1 "SW_PUSH" H 4475 3820 50  0000 C CNN
F 2 "Buttons_Switches_ThroughHole:SW_PUSH_SMALL" H 4475 3900 60  0001 C CNN
F 3 "" H 4475 3900 60  0000 C CNN
	1    4475 3900
	1    0    0    -1  
$EndComp
$Comp
L SW_PUSH SW2
U 1 1 56FBF016
P 4475 4400
F 0 "SW2" H 4625 4510 50  0000 C CNN
F 1 "SW_PUSH" H 4475 4320 50  0000 C CNN
F 2 "Buttons_Switches_ThroughHole:SW_PUSH_SMALL" H 4475 4400 60  0001 C CNN
F 3 "" H 4475 4400 60  0000 C CNN
	1    4475 4400
	1    0    0    -1  
$EndComp
Text GLabel 5350 4650 0    60   Input ~ 0
+3v3
$Comp
L GND-RESCUE-ESP_Board #PWR01
U 1 1 56FBF283
P 4025 2500
F 0 "#PWR01" H 4025 2500 30  0001 C CNN
F 1 "GND" H 4025 2430 30  0001 C CNN
F 2 "" H 4025 2500 60  0000 C CNN
F 3 "" H 4025 2500 60  0000 C CNN
	1    4025 2500
	1    0    0    -1  
$EndComp
$Comp
L GND-RESCUE-ESP_Board #PWR02
U 1 1 56FBF407
P 6275 3525
F 0 "#PWR02" H 6275 3525 30  0001 C CNN
F 1 "GND" H 6275 3455 30  0001 C CNN
F 2 "" H 6275 3525 60  0000 C CNN
F 3 "" H 6275 3525 60  0000 C CNN
	1    6275 3525
	1    0    0    -1  
$EndComp
Text Label 2700 3600 0    60   ~ 0
GND
Text Label 2700 3500 0    60   ~ 0
CTS#
Text Label 2700 3400 0    60   ~ 0
VCC
Text Label 2700 3300 0    60   ~ 0
TXD
Text Label 2700 3200 0    60   ~ 0
RXD
Text Label 2700 3100 0    60   ~ 0
RTS#
$Comp
L GND-RESCUE-ESP_Board #PWR03
U 1 1 56FBF7C9
P 2700 3750
F 0 "#PWR03" H 2700 3750 30  0001 C CNN
F 1 "GND" H 2700 3680 30  0001 C CNN
F 2 "" H 2700 3750 60  0000 C CNN
F 3 "" H 2700 3750 60  0000 C CNN
	1    2700 3750
	1    0    0    -1  
$EndComp
$Comp
L GND-RESCUE-ESP_Board #PWR04
U 1 1 56FBFB7A
P 2700 4600
F 0 "#PWR04" H 2700 4600 30  0001 C CNN
F 1 "GND" H 2700 4530 30  0001 C CNN
F 2 "" H 2700 4600 60  0000 C CNN
F 3 "" H 2700 4600 60  0000 C CNN
	1    2700 4600
	1    0    0    -1  
$EndComp
Text Label 3325 1900 0    60   ~ 0
+5
Text Label 2700 4050 0    60   ~ 0
+5
$Comp
L GND-RESCUE-ESP_Board #PWR05
U 1 1 56FBFDA3
P 4175 4575
F 0 "#PWR05" H 4175 4575 30  0001 C CNN
F 1 "GND" H 4175 4505 30  0001 C CNN
F 2 "" H 4175 4575 60  0000 C CNN
F 3 "" H 4175 4575 60  0000 C CNN
	1    4175 4575
	1    0    0    -1  
$EndComp
$Comp
L ESP01 ESP1
U 1 1 56FC08E6
P 5875 3850
F 0 "ESP1" H 5875 4100 50  0000 C CNN
F 1 "ESP01" H 5875 3600 50  0000 C CNN
F 2 "haum_lib:ESP8266_01" H 5875 2650 60  0001 C CNN
F 3 "" H 5875 2650 60  0000 C CNN
	1    5875 3850
	1    0    0    -1  
$EndComp
$Comp
L R-RESCUE-ESP_Board R1
U 1 1 56FC0A13
P 5275 3800
F 0 "R1" V 5355 3800 40  0000 C CNN
F 1 "4k7" V 5282 3801 40  0000 C CNN
F 2 "Discret:R4" V 5205 3800 30  0001 C CNN
F 3 "" H 5275 3800 30  0000 C CNN
	1    5275 3800
	0    -1   -1   0   
$EndComp
$Comp
L R-RESCUE-ESP_Board R2
U 1 1 56FC0D06
P 5775 4500
F 0 "R2" V 5855 4500 40  0000 C CNN
F 1 "4k7" V 5782 4501 40  0000 C CNN
F 2 "Discret:R4" V 5705 4500 30  0001 C CNN
F 3 "" H 5775 4500 30  0000 C CNN
	1    5775 4500
	0    1    1    0   
$EndComp
Wire Wire Line
	2650 1900 3625 1900
Wire Wire Line
	2650 2100 2650 2300
Wire Wire Line
	2650 2300 4775 2300
Connection ~ 3325 2300
Connection ~ 3550 2300
Connection ~ 4550 2300
Wire Wire Line
	4425 1900 4875 1900
Connection ~ 4550 1900
Connection ~ 3325 1900
Connection ~ 3550 1900
Wire Wire Line
	4025 2200 4025 2500
Connection ~ 4025 2300
Connection ~ 4775 1900
Wire Wire Line
	5625 4000 5525 4000
Wire Wire Line
	5525 3800 5525 4650
Wire Wire Line
	5525 4650 5350 4650
Wire Wire Line
	6125 3700 6125 3450
Wire Wire Line
	6125 3450 6275 3450
Wire Wire Line
	6275 3450 6275 3525
Wire Wire Line
	2700 3600 2700 3750
Wire Wire Line
	2700 3200 5625 3200
Wire Wire Line
	5625 3200 5625 3700
Wire Wire Line
	2700 3300 6400 3300
Wire Wire Line
	6400 3300 6400 4000
Wire Wire Line
	6400 4000 6125 4000
Wire Wire Line
	5625 3800 5525 3800
Connection ~ 5525 4000
Wire Wire Line
	4775 3900 5625 3900
Wire Wire Line
	6275 4400 4775 4400
Wire Wire Line
	6275 3800 6275 4400
Wire Wire Line
	2700 4350 2700 4600
Connection ~ 4175 4400
Wire Wire Line
	4175 3900 4175 4575
Wire Wire Line
	5150 4250 5150 4400
Connection ~ 5150 4400
Wire Wire Line
	6025 4500 6025 4400
Connection ~ 6025 4400
Wire Wire Line
	5025 3800 5025 3900
Connection ~ 5025 3900
Connection ~ 5525 3800
Wire Wire Line
	6125 3800 6275 3800
Wire Wire Line
	6225 4150 6225 3900
Connection ~ 5525 4500
$Comp
L R R3
U 1 1 5716A14B
P 2950 4150
F 0 "R3" V 3030 4150 50  0000 C CNN
F 1 "R" V 2950 4150 50  0000 C CNN
F 2 "Discret:R4" V 2880 4150 50  0001 C CNN
F 3 "" H 2950 4150 50  0000 C CNN
	1    2950 4150
	0    1    1    0   
$EndComp
$Comp
L R R4
U 1 1 5716A208
P 3250 4250
F 0 "R4" V 3330 4250 50  0000 C CNN
F 1 "R" V 3250 4250 50  0000 C CNN
F 2 "Discret:R4" V 3180 4250 50  0001 C CNN
F 3 "" H 3250 4250 50  0000 C CNN
	1    3250 4250
	0    1    1    0   
$EndComp
Wire Wire Line
	2800 4150 2700 4150
Wire Wire Line
	3100 4150 6225 4150
Wire Wire Line
	6225 3900 6125 3900
Wire Wire Line
	3100 4250 2700 4250
Wire Wire Line
	3400 4250 5150 4250
$EndSCHEMATC
